==12106== NVPROF is profiling process 12106, command: ./shared_img_conv
==12106== Some kernel(s) will be replayed on device 0 in order to collect all events/metrics.
==12106== Profiling application: ./shared_img_conv
==12106== Profiling result:
"Device","Context","Stream","Kernel","Correlation_ID","gld_transactions","flop_count_sp","flop_count_sp_fma"
,,,,,,,
"GeForce GTX 1060 6GB (0)","1","7","d_shared_convolve(float*, float*, unsigned int, unsigned int, float const *, unsigned int, unsigned int)",113,377106,691488,345744
"GeForce GTX 1060 6GB (0)","1","7","d_shared_convolve(float*, float*, unsigned int, unsigned int, float const *, unsigned int, unsigned int)",130,377106,691488,345744
"GeForce GTX 1060 6GB (0)","1","7","d_shared_convolve(float*, float*, unsigned int, unsigned int, float const *, unsigned int, unsigned int)",147,722946,1843200,921600
"GeForce GTX 1060 6GB (0)","1","7","d_shared_convolve(float*, float*, unsigned int, unsigned int, float const *, unsigned int, unsigned int)",164,377106,691488,345744
"GeForce GTX 1060 6GB (0)","1","7","d_shared_convolve(float*, float*, unsigned int, unsigned int, float const *, unsigned int, unsigned int)",181,722946,1843200,921600
"GeForce GTX 1060 6GB (0)","1","7","d_shared_convolve(float*, float*, unsigned int, unsigned int, float const *, unsigned int, unsigned int)",198,2493506,4572288,2286144
"GeForce GTX 1060 6GB (0)","1","7","d_shared_convolve(float*, float*, unsigned int, unsigned int, float const *, unsigned int, unsigned int)",215,2493506,4572288,2286144
"GeForce GTX 1060 6GB (0)","1","7","d_shared_convolve(float*, float*, unsigned int, unsigned int, float const *, unsigned int, unsigned int)",232,4981538,12700800,6350400
"GeForce GTX 1060 6GB (0)","1","7","d_shared_convolve(float*, float*, unsigned int, unsigned int, float const *, unsigned int, unsigned int)",249,2493506,4572288,2286144
"GeForce GTX 1060 6GB (0)","1","7","d_shared_convolve(float*, float*, unsigned int, unsigned int, float const *, unsigned int, unsigned int)",266,4981538,12700800,6350400
"GeForce GTX 1060 6GB (0)","1","7","d_shared_convolve(float*, float*, unsigned int, unsigned int, float const *, unsigned int, unsigned int)",283,7880706,14450688,7225344
"GeForce GTX 1060 6GB (0)","1","7","d_shared_convolve(float*, float*, unsigned int, unsigned int, float const *, unsigned int, unsigned int)",300,7880706,14450688,7225344
"GeForce GTX 1060 6GB (0)","1","7","d_shared_convolve(float*, float*, unsigned int, unsigned int, float const *, unsigned int, unsigned int)",317,15885002,40500000,20250000
"GeForce GTX 1060 6GB (0)","1","7","d_shared_convolve(float*, float*, unsigned int, unsigned int, float const *, unsigned int, unsigned int)",334,7880706,14450688,7225344
"GeForce GTX 1060 6GB (0)","1","7","d_shared_convolve(float*, float*, unsigned int, unsigned int, float const *, unsigned int, unsigned int)",351,15885002,40500000,20250000
"GeForce GTX 1060 6GB (0)","1","7","d_shared_convolve(float*, float*, unsigned int, unsigned int, float const *, unsigned int, unsigned int)",368,38795538,71138592,35569296
"GeForce GTX 1060 6GB (0)","1","7","d_shared_convolve(float*, float*, unsigned int, unsigned int, float const *, unsigned int, unsigned int)",385,38795538,71138592,35569296
"GeForce GTX 1060 6GB (0)","1","7","d_shared_convolve(float*, float*, unsigned int, unsigned int, float const *, unsigned int, unsigned int)",402,77818146,198403200,99201600
"GeForce GTX 1060 6GB (0)","1","7","d_shared_convolve(float*, float*, unsigned int, unsigned int, float const *, unsigned int, unsigned int)",419,38795538,71138592,35569296
"GeForce GTX 1060 6GB (0)","1","7","d_shared_convolve(float*, float*, unsigned int, unsigned int, float const *, unsigned int, unsigned int)",436,77818146,198403200,99201600
"GeForce GTX 1060 6GB (0)","1","7","d_shared_convolve(float*, float*, unsigned int, unsigned int, float const *, unsigned int, unsigned int)",453,156276902,286561800,143280900
"GeForce GTX 1060 6GB (0)","1","7","d_shared_convolve(float*, float*, unsigned int, unsigned int, float const *, unsigned int, unsigned int)",470,156276902,286561800,143280900
"GeForce GTX 1060 6GB (0)","1","7","d_shared_convolve(float*, float*, unsigned int, unsigned int, float const *, unsigned int, unsigned int)",487,313150538,798400800,399200400
"GeForce GTX 1060 6GB (0)","1","7","d_shared_convolve(float*, float*, unsigned int, unsigned int, float const *, unsigned int, unsigned int)",504,156276902,286561800,143280900
"GeForce GTX 1060 6GB (0)","1","7","d_shared_convolve(float*, float*, unsigned int, unsigned int, float const *, unsigned int, unsigned int)",521,313150538,798400800,399200400
